{
  "project_info": {
    "project_number": "252141958130",
    "firebase_url": "https://apx0f-291107.firebaseio.com",
    "project_id": "apx0f-291107",
    "storage_bucket": "apx0f-291107.appspot.com"
  },
  "client": [
    {
      "client_info": {
        "mobilesdk_app_id": "1:252141958130:android:144ddf4df2ed69aab3f16b",
        "android_client_info": {
          "package_name": "muslim.hafidi.appx0f"
        }
      },
      "oauth_client": [
        {
          "client_id": "252141958130-n809v9oqlmdg37jbg0utffsabssbh22b.apps.googleusercontent.com",
          "client_type": 3
        }
      ],
      "api_key": [
        {
          "current_key": "AIzaSyC4kubq0iPW3lE60LACR7ThWKymjsoZsgI"
        }
      ],
      "services": {
        "appinvite_service": {
          "other_platform_oauth_client": [
            {
              "client_id": "252141958130-n809v9oqlmdg37jbg0utffsabssbh22b.apps.googleusercontent.com",
              "client_type": 3
            }
          ]
        }
      }
    }
  ],
  "configuration_version": "1"
}